2019/11/24 10:47:33 [error] 6#6: *1 open() "/usr/share/nginx/html/favicon.ico" failed (2: No such file or directory), client: 172.23.0.1, server: localhost, request: "GET /favicon.ico HTTP/1.1", host: "localhost"
2019/11/24 10:50:17 [error] 6#6: *2 open() "/usr/share/nginx/html/favicon.ico" failed (2: No such file or directory), client: 172.23.0.1, server: localhost, request: "GET /favicon.ico HTTP/1.1", host: "localhost"
2019/11/24 10:53:16 [emerg] 1#1: host not found in upstream "php_engine" in /etc/nginx/nginx.conf:34
2019/11/24 10:54:43 [emerg] 1#1: host not found in upstream "php_engine" in /etc/nginx/nginx.conf:34
2019/11/24 10:56:42 [emerg] 1#1: host not found in upstream "php_engine" in /etc/nginx/nginx.conf:34
2019/11/24 10:58:59 [emerg] 1#1: host not found in upstream "php-engine" in /etc/nginx/nginx.conf:34
2019/11/24 11:03:33 [emerg] 1#1: host not found in upstream "php-engine" in /etc/nginx/nginx.conf:34
2019/11/24 11:07:17 [emerg] 1#1: host not found in upstream "web-php" in /etc/nginx/nginx.conf:39
2019/11/24 11:08:12 [emerg] 1#1: host not found in upstream "php-engine" in /etc/nginx/nginx.conf:39
2019/11/24 16:40:05 [emerg] 1#1: host not found in upstream "php-engine" in /etc/nginx/nginx.conf:39
2019/11/24 16:48:48 [error] 6#6: *1 FastCGI sent in stderr: "Primary script unknown" while reading response header from upstream, client: 172.23.0.1, server: localhost, request: "GET / HTTP/1.1", upstream: "fastcgi://172.23.0.2:9000", host: "localhost:8060"
2019/11/24 16:48:48 [error] 6#6: *1 open() "/var/www/html/favicon.ico" failed (2: No such file or directory), client: 172.23.0.1, server: localhost, request: "GET /favicon.ico HTTP/1.1", host: "localhost:8060"
2019/11/24 17:04:43 [error] 6#6: *3 FastCGI sent in stderr: "Primary script unknown" while reading response header from upstream, client: 172.23.0.1, server: localhost, request: "GET / HTTP/1.1", upstream: "fastcgi://172.23.0.2:9000", host: "localhost:8060"
2019/11/24 17:04:53 [error] 6#6: *3 FastCGI sent in stderr: "Primary script unknown" while reading response header from upstream, client: 172.23.0.1, server: localhost, request: "GET / HTTP/1.1", upstream: "fastcgi://172.23.0.2:9000", host: "localhost:8060"
2019/11/24 17:04:58 [error] 6#6: *3 FastCGI sent in stderr: "Primary script unknown" while reading response header from upstream, client: 172.23.0.1, server: localhost, request: "GET / HTTP/1.1", upstream: "fastcgi://172.23.0.2:9000", host: "localhost:8060"
2019/11/24 17:11:31 [emerg] 1#1: host not found in upstream "php-fpm" in /etc/nginx/nginx.conf:39
2019/11/24 17:14:36 [error] 6#6: *1 FastCGI sent in stderr: "Primary script unknown" while reading response header from upstream, client: 172.23.0.1, server: localhost, request: "GET / HTTP/1.1", upstream: "fastcgi://172.23.0.2:9000", host: "localhost:8060"
2019/11/24 17:14:38 [error] 6#6: *1 FastCGI sent in stderr: "Primary script unknown" while reading response header from upstream, client: 172.23.0.1, server: localhost, request: "GET / HTTP/1.1", upstream: "fastcgi://172.23.0.2:9000", host: "localhost:8060"
2019/11/24 18:26:05 [error] 6#6: *1 FastCGI sent in stderr: "Primary script unknown" while reading response header from upstream, client: 172.23.0.1, server: localhost, request: "GET / HTTP/1.1", upstream: "fastcgi://172.23.0.2:9000", host: "localhost:8060"
2019/11/24 18:26:06 [error] 6#6: *1 FastCGI sent in stderr: "Primary script unknown" while reading response header from upstream, client: 172.23.0.1, server: localhost, request: "GET / HTTP/1.1", upstream: "fastcgi://172.23.0.2:9000", host: "localhost:8060"
2019/11/24 18:26:07 [error] 6#6: *1 FastCGI sent in stderr: "Primary script unknown" while reading response header from upstream, client: 172.23.0.1, server: localhost, request: "GET / HTTP/1.1", upstream: "fastcgi://172.23.0.2:9000", host: "localhost:8060"
2019/11/24 18:31:34 [error] 6#6: *1 open() "/var/www/html/favicon.ico" failed (2: No such file or directory), client: 172.23.0.1, server: localhost, request: "GET /favicon.ico HTTP/1.1", host: "localhost:8060"
2019/11/24 18:53:28 [error] 6#6: *3 open() "/var/www/html/favicon.ico" failed (2: No such file or directory), client: 172.23.0.1, server: localhost, request: "GET /favicon.ico HTTP/1.1", host: "localhost:8060"
